[
 {"projName":"Wutz",
    "key":"wutz",
    "projAvatar":"/img/wutz-logo.png",
    "projDescription":"Wurtlitzer digital. Comunica applicación mobile y desktop para seleccionar la música a encolar en un bar. También aplica a videos, por lo que también funcionaría para un catálogo de películas o series. ",
    "projSummary":"PHP7, MySQL, Electron, Phonegap",
    "images":[{"width":7, "height":3, "src":"/img/wutz-pl-1.png", "caption":"Wutz-Player"},
            {"width":5, "height":3,"src":"/img/wutz-pl-2.png" , "caption":"Wutz-Admin"},
            {"width":3, "height":4,"caption":"Wutz-App" ,"src":"/img/wutz-pl-3.JPG"},
            {"width":3, "height":4,"caption":"Wutz-App", "src":"/img/wutz-pl-4.JPG"},
            {"width":3, "height":4,"caption":"Wutz-App", "src":"/img/wutz-pl-5.JPG"}
           ]
  },
  {"projName":"Sensorial",
    "key":"sensorial",
    "projAvatar":"S",
    "projDescription":"Sistema de control de acceso a habitaciones de moteles. Cada puerta de habitación tiene un sensor, el cuál al activarse por un DVR envía esta información al Back-End de Sensorial. Almacenandolas y desplegandolas en esta aplicación Web.",
    "projSummary":"Node, Express, MySQL, React",
    "images":[{"width":2, "height":1, "src":"/img/sensorial.1.png", "caption":"https://sensorial.bluezinc.cl"},
              {"width":2, "height":1, "src":"/img/sensorial-2.png", "caption":"https://sensorial.bluezinc.cl"}
             ]
  },
  {"projName":"Sistema Parque Boco",
    "key":"sis-parque-boco",
    "projAvatar":"/img/parque-boco.ico",
    "projDescription":"Sistema de administración de parque cementario.",
    "projSummary":"PHP7, MySQL, Electron",
    "images":[{"width":2, "height":1, "src":"/img/parque-1.png", "caption":""},
              {"width":2, "height":1, "src":"/img/parque-2.png", "caption":""},
              {"width":2, "height":1, "src":"/img/parque-3.png", "caption":""}
             ]
  }, 
  {"projName":"BZubasta",
    "key":"bzubasta",
    "projAvatar":"BZ",
    "projDescription":"Módulo de Prestashop para realizar subastas en sitio de E-Commerce.",
    "projSummary":"PHP, Prestashop 1.7",
    "images":[{"width":2, "height":1, "src":"/img/bzubasta-1.png", "caption":""},
              {"width":2, "height":1, "src":"/img/bzubasta-2.png", "caption":""},
              {"width":2, "height":1, "src":"/img/bzubasta-3.png", "caption":""},
              {"width":2, "height":1, "src":"/img/bzubasta-4.png", "caption":""}
             ]
  }
]